{
    "rules": {
        "adjacent-overload-signatures": true,
        "member-access": true,
        "member-ordering": [
            true,
            {
                "order": [
                    "public-static-field",
                    "private-static-field",
                    "public-instance-field",
                    "private-instance-field",
                    "public-constructor",
                    "private-constructor",
                    "public-instance-method",
                    "protected-instance-method",
                    "private-instance-method"
                ]
            }
        ],
        "no-empty-interface": true,
        "no-reference": true,
        "prefer-for-of": true,
        "await-promise": true,
        "ban-comma-operator": true,
        "curly": false,
        "forin": true,
        "no-duplicate-super": true,
        "no-duplicate-switch-case": true,
        "no-duplicate-imports": true,
        "no-duplicate-variable": true,
        "no-floating-promises": true,
        "no-for-in-array": true,
        "no-invalid-template-strings": true,
        "no-invalid-this": true,
        "no-return-await": true,
        "no-shadowed-variable": true,
        "no-string-throw": true,
        "no-switch-case-fall-through": true,
        "no-use-before-declare": true,
        "prefer-object-spread": true,
        "prefer-conditional-expression": true,
        
        "restrict-plus-operands": true,
        "use-isnan": true,
        "deprecation": true,
        "no-boolean-literal-compare": true,
        "prefer-template": true,
        "quotemark": [true, "double", "avoid-escape", "avoid-template"]
    }
}